…
There are 483 observations and 6 variables in this dataset.

There are 483 participants are recruited.

The average age of baseline is 65.0467909.

There are 29.8578199% of women in the study are APOE4 carriers.

``` r
# remove participants with no MCI
mci_baseline <- filter(baseline, age_at_onset != ".")
mci_baseline
```

    ## # A tibble: 97 × 6
    ##       id current_age sex    education apoe4       age_at_onset
    ##    <dbl>       <dbl> <chr>      <dbl> <chr>       <chr>       
    ##  1     3        62.5 Male          16 carrier     66.8        
    ##  2     5        66   Male          16 non-carrier 68.7        
    ##  3     7        66.5 Male          18 non-carrier 74          
    ##  4    13        63.1 Male          12 carrier     69          
    ##  5    14        58.4 Female        20 non-carrier 66.2        
    ##  6    18        67.8 Male          16 non-carrier 69.8        
    ##  7    22        67.3 Female        20 carrier     74.6        
    ##  8    26        64.8 Female        20 carrier     71.1        
    ##  9    30        66.3 Female        12 non-carrier 73.1        
    ## 10    39        68.3 Female        16 carrier     70.2        
    ## # ℹ 87 more rows
…
    ##  [1] 484 485 486 487 488 489 490 491 492 493 494 495

There are 8 participants only in baseline dataset, and 12 participants
only in amyloid dataset.

``` r
# combine datasets
participants <- inner_join(baseline, amyloid, by = join_by(id == study_id))
participants
```

    ## # A tibble: 475 × 11
    ##       id current_age sex    education apoe4  age_at_onset baseline time_2 time_4
    ##    <dbl>       <dbl> <chr>      <dbl> <chr>  <chr>        <chr>    <chr>  <chr> 
    ##  1     1        63.1 Female        16 carri… .            0.11054… <NA>   0.109…
    ##  2     2        65.6 Female        20 carri… .            0.10748… 0.109… 0.109…
    ##  3     3        62.5 Male          16 carri… 66.8         0.10608… 0.108… 0.106…
    ##  4     4        69.8 Female        16 non-c… .            0.10925… 0.108… 0.110…
    ##  5     5        66   Male          16 non-c… 68.7         0.10795… 0.112… 0.115…
    ##  6     6        62.5 Male          16 non-c… .            0.11242… 0.112… 0.111…
    ##  7     7        66.5 Male          18 non-c… 74           0.11224… <NA>   0.104…
    ##  8     8        67.2 Female        18 non-c… .            0.10956… 0.109… <NA>  
    ##  9     9        66.7 Female        16 non-c… .            0.11210… 0.109… 0.108…
    ## 10    10        64.1 Female        18 non-c… .            0.11160… 0.111… <NA>  
    ## # ℹ 465 more rows
    ## # ℹ 2 more variables: time_6 <chr>, time_8 <chr>
…
